<svg id="startup" xmlns="http://www.w3.org/2000/svg" width="25" height="25" viewBox="0 0 25 25">
  <g id="Group_73" data-name="Group 73">
    <g id="Group_72" data-name="Group 72">
      <path id="Path_262" data-name="Path 262" d="M24.276,11.387a7.738,7.738,0,0,0-9.01-4.755A22.075,22.075,0,0,0,.626,0,.591.591,0,0,0,0,.626,22.53,22.53,0,0,0,6.507,15.266c-.626,3.879,1.126,7.633,4.755,9.01a8.716,8.716,0,0,1-.25-5.381,13.676,13.676,0,0,0,1.877,1,.589.589,0,0,0,.751-.125L19.9,13.514a.559.559,0,0,0,0-.626,7.978,7.978,0,0,0-1-1.752A8.716,8.716,0,0,1,24.276,11.387Zm-13.765-.876a2.478,2.478,0,0,1-3.5-3.5,2.478,2.478,0,0,1,3.5,3.5Z" fill="#4b4545"/>
    </g>
  </g>
  <g id="Group_75" data-name="Group 75" transform="translate(20.053 15.134)">
    <g id="Group_74" data-name="Group 74">
      <path id="Path_263" data-name="Path 263" d="M411.625,310.1l-2.534-2.534a1.194,1.194,0,0,0-1.689,1.689l2.534,2.534a1.195,1.195,0,0,0,1.689-1.689Z" transform="translate(-407.04 -307.2)" fill="#4b4545"/>
    </g>
  </g>
  <g id="Group_77" data-name="Group 77" transform="translate(15.134 20.053)">
    <g id="Group_76" data-name="Group 76">
      <path id="Path_264" data-name="Path 264" d="M311.785,409.936l-2.534-2.534a1.194,1.194,0,0,0-1.689,1.689l2.534,2.534a1.195,1.195,0,0,0,1.689-1.689Z" transform="translate(-307.2 -407.04)" fill="#4b4545"/>
    </g>
  </g>
  <g id="Group_79" data-name="Group 79" transform="translate(17.64 17.76)">
    <g id="Group_78" data-name="Group 78">
      <path id="Path_265" data-name="Path 265" d="M361.391,362.261l-3.5-3.5a1.195,1.195,0,0,0-1.689,1.689l3.5,3.5a1.195,1.195,0,1,0,1.689-1.689Z" transform="translate(-355.84 -358.4)" fill="#4b4545"/>
    </g>
  </g>
</svg>
