<svg xmlns="http://www.w3.org/2000/svg" width="25" height="25" viewBox="0 0 25 25">
  <g id="user-3" transform="translate(-0.001)">
    <g id="Group_35" data-name="Group 35" transform="translate(0.001)">
      <path id="Path_227" data-name="Path 227" d="M12.5,0A12.5,12.5,0,1,0,25,12.5,12.5,12.5,0,0,0,12.5,0Zm.038,18.4H7.123c0-3.9,3.429-3.9,4.19-4.925l.087-.466A3.732,3.732,0,0,1,9.577,9.631c0-2.013,1.309-3.645,2.924-3.645s2.924,1.632,2.924,3.645a3.745,3.745,0,0,1-1.8,3.363l.1.529c.835.972,4.15,1.035,4.15,4.874Z" transform="translate(-0.001)" fill="#4b4545"/>
    </g>
  </g>
</svg>
