<svg xmlns="http://www.w3.org/2000/svg" width="25.824" height="26.748" viewBox="0 0 25.824 26.748">
  <path id="search-2" d="M26.416,24.363l-6.366-6.621A10.8,10.8,0,1,0,11.784,21.6a10.684,10.684,0,0,0,6.187-1.954l6.414,6.671a1.409,1.409,0,1,0,2.03-1.953ZM11.784,2.817A7.982,7.982,0,1,1,3.8,10.8,7.991,7.991,0,0,1,11.784,2.817Z" transform="translate(-0.984)" fill="#fff"/>
</svg>
