<svg xmlns="http://www.w3.org/2000/svg" xmlns:xlink="http://www.w3.org/1999/xlink" width="6" height="11" viewBox="0 0 6 11">
    <defs>
        <path id="a" d="M0 0h6v11H0z"/>
    </defs>
    <g fill="none" fill-rule="evenodd">
        <mask id="b" fill="#fff">
            <use xlink:href="#a"/>
        </mask>
        <path fill="#000" d="M5.522 0L0 5.28v.439L5.522 11 6 10.56.766 5.5 5.994.44z" mask="url(#b)"/>
    </g>
</svg>
