<svg xmlns="http://www.w3.org/2000/svg" width="8" height="8" viewBox="0 0 8 8">
    <g fill="#000" fill-rule="nonzero">
        <path d="M7.905.095a.323.323 0 0 0-.457 0L.095 7.448a.323.323 0 1 0 .457.457L7.905.552a.323.323 0 0 0 0-.457z"/>
        <path d="M7.905 7.448L.552.095a.323.323 0 1 0-.457.457l7.353 7.353a.322.322 0 0 0 .457 0 .323.323 0 0 0 0-.457z"/>
    </g>
</svg>
