<svg xmlns="http://www.w3.org/2000/svg" width="23" height="14" viewBox="0 0 23 14">
    <g fill="#D2D2D2" fill-rule="nonzero">
        <path d="M16.1 0H6.9C3.095 0 0 3.14 0 7s3.095 7 6.9 7h9.2c3.805 0 6.9-3.14 6.9-7s-3.095-7-6.9-7zm0 13.222H6.9C3.518 13.222.767 10.431.767 7 .767 3.57 3.518.778 6.9.778h9.2c3.382 0 6.133 2.791 6.133 6.222 0 3.43-2.751 6.222-6.133 6.222z"/>
        <path d="M16 2c-2.757 0-5 2.243-5 5s2.243 5 5 5 5-2.243 5-5-2.243-5-5-5zm0 9c-2.205 0-4-1.795-4-4s1.795-4 4-4 4 1.795 4 4-1.795 4-4 4zM6.5 3c-.277 0-.5.174-.5.389V9.61c0 .215.223.389.5.389s.5-.174.5-.389V3.39C7 3.174 6.777 3 6.5 3z"/>
    </g>
</svg>
