<svg id="instagram-logo" xmlns="http://www.w3.org/2000/svg" width="30" height="30" viewBox="0 0 30 30">
  <g id="Group_18" data-name="Group 18">
    <g id="Group_17" data-name="Group 17">
      <path id="Path_214" data-name="Path 214" d="M23.224,26.593a3.363,3.363,0,1,0-3.367-3.369A3.374,3.374,0,0,0,23.224,26.593Z" transform="translate(-8.225 -8.224)" fill="#4b4545"/>
      <path id="Path_215" data-name="Path 215" d="M34.135,17.2V13.96h-.422l-2.822.009.011,3.244Z" transform="translate(-12.469 -5.635)" fill="#4b4545"/>
      <path id="Path_216" data-name="Path 216" d="M15,0A15,15,0,1,0,30,15,15.017,15.017,0,0,0,15,0Zm8.531,13.25v6.985a3.3,3.3,0,0,1-3.3,3.3H9.766a3.3,3.3,0,0,1-3.3-3.3V9.767a3.3,3.3,0,0,1,3.3-3.3H20.233a3.3,3.3,0,0,1,3.3,3.3Z" fill="#4b4545"/>
      <path id="Path_217" data-name="Path 217" d="M26.4,23.892a5.234,5.234,0,1,1-10.083-1.963H13.457v7.835A1.834,1.834,0,0,0,15.291,31.6H27.032a1.835,1.835,0,0,0,1.834-1.833V21.929H26.008A5.163,5.163,0,0,1,26.4,23.892Z" transform="translate(-6.162 -9.33)" fill="#4b4545"/>
    </g>
  </g>
</svg>
