<svg xmlns="http://www.w3.org/2000/svg" width="25" height="31.978" viewBox="0 0 25 31.978">
  <g id="light-bulb-2" transform="translate(-85.277)">
    <g id="Group_69" data-name="Group 69" transform="translate(85.277)">
      <g id="Group_68" data-name="Group 68" transform="translate(0)">
        <path id="Path_253" data-name="Path 253" d="M110.2,10.661A12.46,12.46,0,0,0,98.927.068C98.574.031,98.2.009,97.762,0c-.412.009-.783.031-1.135.068A12.46,12.46,0,0,0,85.355,10.661a11.54,11.54,0,0,0,3.862,10,9.643,9.643,0,0,1,2.749,3.948h3.31V15.817h-1.25a2.429,2.429,0,0,1-2.5-2.345,2.505,2.505,0,0,1,5,0v1.172h2.5V13.473a2.505,2.505,0,0,1,5,0,2.428,2.428,0,0,1-2.5,2.345h-1.25v8.792h3.311a9.639,9.639,0,0,1,2.75-3.948A11.541,11.541,0,0,0,110.2,10.661Z" transform="translate(-85.277)" fill="#4b4545"/>
        <rect id="Rectangle_30" data-name="Rectangle 30" width="2.482" height="9.306" transform="translate(11.259 15.743)" fill="#4b4545"/>
        <path id="Path_254" data-name="Path 254" d="M292.555,180.32a1.241,1.241,0,1,0-2.482,0v1.241h1.241A1.242,1.242,0,0,0,292.555,180.32Z" transform="translate(-275.061 -166.665)" fill="#4b4545"/>
        <path id="Path_255" data-name="Path 255" d="M179.137,382.374a.62.62,0,0,0,.62.62h.931l1.116,1.488a2.493,2.493,0,0,0,1.985.993h1.861a2.492,2.492,0,0,0,1.985-.993l1.117-1.488h.931a.62.62,0,0,0,.62-.62c-.047-1.989,0-3.026,0-3.026H179.137S179.193,380.549,179.137,382.374Zm8.065.62-.558.745a1.245,1.245,0,0,1-.993.5H183.79a1.247,1.247,0,0,1-.993-.5l-.558-.745Z" transform="translate(-172.221 -353.498)" fill="#4b4545"/>
        <path id="Path_256" data-name="Path 256" d="M188.915,179.08a1.241,1.241,0,1,0,0,2.482h1.241v-1.241A1.242,1.242,0,0,0,188.915,179.08Z" transform="translate(-180.168 -166.666)" fill="#4b4545"/>
      </g>
    </g>
  </g>
</svg>
