<svg xmlns="http://www.w3.org/2000/svg" xmlns:xlink="http://www.w3.org/1999/xlink" width="25" height="25" viewBox="0 0 25 25">
  <defs>
    <clipPath id="clip-path">
      <rect id="Rectangle_83" data-name="Rectangle 83" width="25" height="25" transform="translate(160 2494)" fill="#4b4545"/>
    </clipPath>
  </defs>
  <g id="Mask_Group_2" data-name="Mask Group 2" transform="translate(-160 -2494)" clip-path="url(#clip-path)">
    <g id="television" transform="translate(160 2494)">
      <g id="Group_315" data-name="Group 315">
        <path id="Path_309" data-name="Path 309" d="M23.186,6.082H15.458l2.744-4.5A.828.828,0,0,0,16.788.717L13.519,6.082H11.481L8.212.717A.828.828,0,1,0,6.8,1.579l2.744,4.5H1.814A1.816,1.816,0,0,0,0,7.9V22.866A1.816,1.816,0,0,0,1.814,24.68H23.186A1.816,1.816,0,0,0,25,22.866V7.9A1.816,1.816,0,0,0,23.186,6.082ZM17.532,20.69a.986.986,0,0,1-.986.986H3.929a.986.986,0,0,1-.986-.986V10.071a.986.986,0,0,1,.986-.986H16.546a.986.986,0,0,1,.986.986Zm3.649-.315a1.711,1.711,0,1,1,1.711-1.711A1.713,1.713,0,0,1,21.181,20.375Zm0-6.567A1.711,1.711,0,1,1,22.891,12.1,1.713,1.713,0,0,1,21.181,13.808Z" fill="#4b4545"/>
      </g>
    </g>
  </g>
</svg>
