<svg xmlns="http://www.w3.org/2000/svg" xmlns:xlink="http://www.w3.org/1999/xlink" width="25" height="25" viewBox="0 0 25 25">
  <defs>
    <clipPath id="clip-path">
      <rect id="Rectangle_83" data-name="Rectangle 83" width="25" height="25" transform="translate(160 2494)" fill="#4b4545"/>
    </clipPath>
  </defs>
  <g id="Mask_Group_6" data-name="Mask Group 6" transform="translate(-160 -2494)" clip-path="url(#clip-path)">
    <g id="laptop" transform="translate(160 2494)">
      <g id="Group_321" data-name="Group 321">
        <path id="Path_316" data-name="Path 316" d="M24.969,18.294a.127.127,0,0,0-.1-.044H.127A.127.127,0,0,0,0,18.4,3.008,3.008,0,0,0,3.275,20.71h18.45A3.009,3.009,0,0,0,25,18.4.129.129,0,0,0,24.969,18.294ZM14.361,19.907H10.639v-.856h3.722Z" fill="#4b4545"/>
        <path id="Path_317" data-name="Path 317" d="M2.7,17.359H22.3a.514.514,0,0,0,.513-.513V4.8A.514.514,0,0,0,22.3,4.29H2.7a.514.514,0,0,0-.513.513V16.845A.514.514,0,0,0,2.7,17.359ZM3.981,6.087H21.019v9.474H3.981V6.087Z" fill="#4b4545"/>
      </g>
    </g>
  </g>
</svg>
