<svg xmlns="http://www.w3.org/2000/svg" width="17.662" height="22.848" viewBox="0 0 17.662 22.848">
  <path id="Path_281" data-name="Path 281" d="M8181,1345v22.848l17.662-10.9Z" transform="translate(-8181 -1345)" fill="#4b4545"/>
</svg>
