<svg xmlns="http://www.w3.org/2000/svg" width="33.151" height="33.151" viewBox="0 0 33.151 33.151">
  <g id="Group_85" data-name="Group 85" transform="translate(1 1)">
    <circle id="Ellipse_1" data-name="Ellipse 1" cx="15.575" cy="15.575" r="15.575" transform="translate(0 0)" fill="none" stroke="#8b7736" stroke-width="2"/>
    <path id="Path_202" data-name="Path 202" d="M49.8,46.312a1.254,1.254,0,0,0-1.392,0l-.6.408a1.879,1.879,0,0,1-2.208-.056,19.671,19.671,0,0,1-1.744-1.5,17.85,17.85,0,0,1-1.5-1.744,1.879,1.879,0,0,1-.056-2.208l.408-.6a1.229,1.229,0,0,0,0-1.392l-1.716-2.518a1.668,1.668,0,0,0-2.152-.549h0a3.233,3.233,0,0,0-1.463,4.191,23.333,23.333,0,0,0,3.98,6.132l1.224,1.224a23.227,23.227,0,0,0,6.132,3.98,3.233,3.233,0,0,0,4.191-1.463h0a1.664,1.664,0,0,0-.549-2.152Z" transform="translate(-29.898 -27.959)" fill="#8b7736"/>
  </g>
</svg>
