<svg id="rss" xmlns="http://www.w3.org/2000/svg" width="30" height="30" viewBox="0 0 30 30">
  <path id="Path_218" data-name="Path 218" d="M15,0A15,15,0,1,0,30,15,15,15,0,0,0,15,0ZM9.375,22.5a1.875,1.875,0,1,1,1.875-1.875A1.875,1.875,0,0,1,9.375,22.5Zm5.156,0A7.039,7.039,0,0,0,7.5,15.469V12.656A9.855,9.855,0,0,1,17.344,22.5Zm5.625,0A12.656,12.656,0,0,0,7.5,9.844V7.031A15.469,15.469,0,0,1,22.969,22.5Z" fill="#4b4545"/>
</svg>
